Chapter 3: Attribute data operations – visage
…
 [1]  1  2  3  4  5  6  7  8  9 10

# It is Equivalent to using the values() function
values(elev)[1:10]

 [1]  1  2  3  4  5  6  7  8  9 10

# Extracting all values - multi-layer raster
# It returns a data.frame
values(two_layers) |> 
  as_tibble()

# A tibble: 100 × 2
   `Continuous variable` `Categorical variable`
                   <int>                  <int>
 1                     1                      3
 2                     2                      3
 3                     3                      3
 4                     4                      2
 5                     5                      1
 6                     6                      1
 7                     7                      3
 8                     8                      3
 9                     9                      1
10                    10                      2
# ℹ 90 more rows
…
E11

Change the columns’ names in us_states to lowercase. (Hint: helper functions - tolower() and colnames() may help.)

A very easy method is using the janitor package and the function clean_names()

Code

us_states |> 
  janitor::clean_names() |> 
  as_tibble() |> 
  print(n = 5)

# A tibble: 49 × 7
  geoid name   region   area total_pop_10 total_pop_15                  geometry
  <chr> <chr>  <fct>  [km^2]        <dbl>        <dbl>        <MULTIPOLYGON [°]>
1 01    Alaba… South  1.34e5      4712651      4830620 (((-88.20006 34.99563, -…
2 04    Arizo… West   2.95e5      6246816      6641928 (((-114.7196 32.71876, -…
3 08    Color… West   2.70e5      4887061      5278906 (((-109.0501 41.00066, -…
4 09    Conne… Norte… 1.30e4      3545837      3593222 (((-73.48731 42.04964, -…
5 12    Flori… South  1.51e5     18511620     19645772 (((-81.81169 24.56874, -…
# ℹ 44 more rows
…
