3 types of Cartograms in R with {sf} and {cartogram} – visage
…
# Print world_map object to the console
world_map |> 
  print()

Table 1: The sf object morld map to be used in the susequent analysis

Simple feature collection with 171 features and 14 fields
Geometry type: MULTIPOLYGON
Dimension:     XY
Bounding box:  xmin: -20037510 ymin: -7481527 xmax: 20037510 ymax: 18440000
Projected CRS: WGS 84 / Pseudo-Mercator
# A tibble: 171 × 15
# Groups:   name [170]
   name       pop_est iso_a3                  geometry country   area birth_rate
 * <chr>        <dbl> <chr>         <MULTIPOLYGON [m]> <fct>    <dbl>      <dbl>
 1 Afghanist…  3.80e7 AFG    (((7404817 4489796, 7466… Afghan… 6.52e5      38.8 
 2 Albania     2.85e6 ALB    (((2339940 4989172, 2337… Albania 2.87e4      12.7 
 3 Algeria     4.31e7 DZA    (((-966743 3173002, -964… Algeria 2.38e6      24.0 
 4 Angola      3.18e7 AGO    (((1446654 -532848.7, 14… Angola  1.25e6      39.0 
 5 Argentina   4.49e7 ARG    (((-7640303 -6916018, -7… Argent… 2.78e6      16.9 
 6 Armenia     2.96e6 ARM    (((5176993 4688866, 5136… Armenia 2.97e4      13.9 
 7 Australia   2.54e7 AUS    (((16440693 -4984101, 16… Austra… 7.74e6      12.2 
 8 Austria     8.88e6 AUT    (((1890168 6127425, 1881… Austria 8.39e4       8.76
 9 Azerbaijan  1.00e7 AZE    (((5165775 5140132, 5197… Azerba… 8.66e4      17.0 
10 Bahamas     3.89e5 BHS    (((-8792013 3097259, -87… Bahama… 1.39e4      15.6 
# ℹ 161 more rows
# ℹ 8 more variables: death_rate <dbl>, infant_mortality_rate <dbl>,
#   internet_users <dbl>, life_exp_at_birth <dbl>,
#   maternal_mortality_rate <int>, net_migration_rate <dbl>, population <int>,
#   population_growth_rate <dbl>
…
