Computing shortest routes in the sea that avoid land – visage
…
# Extracting the bounding box of that tibble to get our map
bb_orcas <- st_bbox(orcas_sf)

orcas_sf |> 
  print(n = 10)

Simple feature collection with 1168 features and 2 fields
Geometry type: POINT
Dimension:     XY
Bounding box:  xmin: -125.6233 ymin: 47.85333 xmax: -122.0445 ymax: 49.55733
Geodetic CRS:  WGS 84
# A tibble: 1,168 × 3
      id             geometry type 
 * <int>          <POINT [°]> <chr>
 1     1  (-124.6925 48.5105) start
 2     2  (-123.1578 48.4765) start
 3     3    (-123.2 48.57167) start
 4     4 (-123.3367 49.09267) start
 5     5 (-123.0368 48.79683) start
 6     6 (-122.9295 48.43633) start
 7     7 (-123.8992 48.84733) start
 8     8  (-123.592 48.02783) start
 9     9    (-123.4358 48.87) start
10    10 (-123.3302 48.80333) start
# ℹ 1,158 more rows
…
